assignments/08A-iic-controller/trace.vcd
$date
	Tue Jan 14 11:20:33 2025
$end
$version
	Icarus Verilog
$end
$timescale
	1ps
$end
$scope module bench $end
$var reg 153 ! debug [152:0] $end
$upscope $end
$scope module bench $end
$scope module decoder $end
$var wire 1 " SCL $end
$var wire 1 # SDA $end
$var wire 1 $ SDA_drive $end
$var wire 1 % SDA_recv $end
$var wire 1 & clk $end
$var wire 1 ' grab_SDA $end
$var reg 1 ( edge_scl $end
$var reg 1 ) prv_SDA $end
$var reg 1 * prv_scl $end
$var reg 1 + start $end
$var reg 1 , stop $end
$upscope $end
$upscope $end
$scope module bench $end
$scope module REF $end
$var wire 1 & clk $end
$upscope $end
$upscope $end
$scope module bench $end
$scope module REF $end
$var wire 1 - reset $end
$upscope $end
$upscope $end
$scope module bench $end
$scope module REF $end
$var wire 1 " SCL $end
$upscope $end
$upscope $end
$scope module bench $end
$scope module REF $end
$var wire 1 % SDA_recv $end
$upscope $end
$upscope $end
$scope module bench $end
$scope module REF $end
$var wire 1 + start $end
$upscope $end
$upscope $end
$scope module bench $end
$scope module REF $end
$var wire 1 , stop $end
$upscope $end
$upscope $end
$scope module bench $end
$scope module REF $end
$var reg 1 ' grab_SDA $end
$upscope $end
$upscope $end
$scope module bench $end
$scope module REF $end
$var reg 1 $ SDA_drive $end
$upscope $end
$upscope $end
$scope module bench $end
$scope module REF $end
$var wire 8 . state_ref [7:0] $end
$upscope $end
$upscope $end
$scope module bench $end
$scope module REF $end
$var reg 8 / state_next [7:0] $end
$upscope $end
$upscope $end
$scope module bench $end
$scope module REF $end
$var wire 1 ( edge_scl $end
$upscope $end
$upscope $end
$scope module bench $end
$scope module REF $end
$var reg 8 0 memory [7:0] $end
$upscope $end
$upscope $end
$enddefinitions $end
$comment Show the parameter values. $end
$dumpall
$end
#0
$dumpvars
b10000001 0
b1 /
b0 .
1-
0,
0+
1*
x)
0(
0'
1&
1%
1$
1#
1"
b0 !
$end
#500
0&
#1000
1)
1&
#1500
0&
#2000
b1 .
1&
b101001101010100010000010101001001010100 !
0-
#2500
0&
#3000
1&
#3500
0&
#4000
b11 /
0)
1+
0%
0#
1&
#4500
0&
#5000
b11 .
0+
1&
#5500
0&
#6000
0*
1(
1&
0"
#6500
0&
#7000
0(
1&
#7500
0&
#8000
1&
b1000001010001000100010001010010010001010101001101010011 !
#8500
0&
#9000
1&
#9500
0&
#10000
1)
1%
1#
1&
#10500
0&
#11000
1&
#11500
0&
#12000
b100 /
1*
1(
1&
1"
#12500
0&
#13000
b100 .
0(
1&
#13500
0&
#14000
0*
1(
1&
0"
#14500
0&
#15000
0(
1&
#15500
0&
#16000
1&
#16500
0&
#17000
1&
#17500
0&
#18000
0)
0%
0#
1&
#18500
0&
#19000
1&
#19500
0&
#20000
b101 /
1*
1(
1&
1"
#20500
0&
#21000
b101 .
0(
1&
#21500
0&
#22000
0*
1(
1&
0"
#22500
0&
#23000
0(
1&
#23500
0&
#24000
1)
1%
1#
1&
#24500
0&
#25000
1&
#25500
0&
#26000
0)
0%
0#
1&
#26500
0&
#27000
1&
#27500
0&
#28000
b110 /
1*
1(
1&
1"
#28500
0&
#29000
b110 .
0(
1&
#29500
0&
#30000
0*
1(
1&
0"
#30500
0&
#31000
0(
1&
#31500
0&
#32000
1)
1%
1#
1&
#32500
0&
#33000
1&
#33500
0&
#34000
0)
0%
0#
1&
#34500
0&
#35000
1&
#35500
0&
#36000
b111 /
1*
1(
1&
1"
#36500
0&
#37000
b111 .
0(
1&
#37500
0&
#38000
0*
1(
1&
0"
#38500
0&
#39000
0(
1&
#39500
0&
#40000
1)
1%
1#
1&
#40500
0&
#41000
1&
#41500
0&
#42000
1&
#42500
0&
#43000
1&
#43500
0&
#44000
b1000 /
1*
1(
1&
1"
#44500
0&
#45000
b1000 .
0(
1&
#45500
0&
#46000
0*
1(
1&
0"
#46500
0&
#47000
0(
1&
#47500
0&
#48000
1&
#48500
0&
#49000
1&
#49500
0&
#50000
0)
0%
0#
1&
#50500
0&
#51000
1&
#51500
0&
#52000
b1001 /
1*
1(
1&
1"
#52500
0&
#53000
b1001 .
0(
1&
#53500
0&
#54000
0*
1(
1&
0"
#54500
0&
#55000
0(
1&
#55500
0&
#56000
1)
1%
1#
1&
#56500
0&
#57000
1&
#57500
0&
#58000
1&
#58500
0&
#59000
1&
#59500
0&
#60000
b1010 /
1*
1(
1&
1"
#60500
0&
#61000
b1010 .
0(
1&
#61500
0&
#62000
0*
1(
1&
0"
#62500
0&
#63000
0(
1&
#63500
0&
#64000
1&
b1010111 !
#64500
0&
#65000
1&
#65500
0&
#66000
0)
0%
0#
1&
#66500
0&
#67000
1&
#67500
0&
#68000
b110011 /
1*
1(
1&
1"
#68500
0&
#69000
b110011 .
0(
1&
#69500
0&
#70000
b110100 /
0*
1(
1&
0"
#70500
0&
#71000
0%
0#
0$
1'
b110100 .
0(
1&
#71500
0&
#72000
1&
b10000010100001101001011 !
#72500
0&
#73000
1&
#73500
0&
#74000
1&
#74500
0&
#75000
1&
#75500
0&
#76000
1*
1(
1&
1"
#76500
0&
#77000
0(
1&
#77500
0&
#78000
b10100 /
0*
1(
1&
0"
#78500
0&
#79000
1%
1#
b10101 /
1$
0'
b10100 .
0(
1&
#79500
0&
#80000
1)
b10101 .
1&
b1000010010110010101010001000101 !
#80500
0&
#81000
1&
#81500
0&
#82000
0)
b1 0
0%
0#
1&
#82500
0&
#83000
1&
#83500
0&
#84000
b10110 /
1*
1(
1&
1"
#84500
0&
#85000
b10110 .
0(
1&
#85500
0&
#86000
0*
1(
1&
0"
#86500
0&
#87000
0(
1&
#87500
0&
#88000
1)
b1000001 0
1%
1#
1&
#88500
0&
#89000
1&
#89500
0&
#90000
0)
b1 0
0%
0#
1&
#90500
0&
#91000
1&
#91500
0&
#92000
b10111 /
1*
1(
1&
1"
#92500
0&
#93000
b10111 .
0(
1&
#93500
0&
#94000
0*
1(
1&
0"
#94500
0&
#95000
0(
1&
#95500
0&
#96000
1)
b100001 0
1%
1#
1&
#96500
0&
#97000
1&
#97500
0&
#98000
1&
#98500
0&
#99000
1&
#99500
0&
#100000
b11000 /
1*
1(
1&
1"
#100500
0&
#101000
b110001 0
b11000 .
0(
1&
#101500
0&
#102000
0*
1(
1&
0"
#102500
0&
#103000
0(
1&
#103500
0&
#104000
1&
#104500
0&
#105000
1&
#105500
0&
#106000
1&
#106500
0&
#107000
1&
#107500
0&
#108000
b11001 /
1*
1(
1&
1"
#108500
0&
#109000
b111001 0
b11001 .
0(
1&
#109500
0&
#110000
0*
1(
1&
0"
#110500
0&
#111000
0(
1&
#111500
0&
#112000
1&
#112500
0&
#113000
1&
#113500
0&
#114000
0)
b110001 0
0%
0#
1&
#114500
0&
#115000
1&
#115500
0&
#116000
b11010 /
1*
1(
1&
1"
#116500
0&
#117000
b11010 .
0(
1&
#117500
0&
#118000
0*
1(
1&
0"
#118500
0&
#119000
0(
1&
#119500
0&
#120000
1)
b110101 0
1%
1#
1&
#120500
0&
#121000
1&
#121500
0&
#122000
0)
b110001 0
0%
0#
1&
#122500
0&
#123000
1&
#123500
0&
#124000
b11011 /
1*
1(
1&
1"
#124500
0&
#125000
b11011 .
0(
1&
#125500
0&
#126000
0*
1(
1&
0"
#126500
0&
#127000
0(
1&
#127500
0&
#128000
1)
b110011 0
1%
1#
1&
#128500
0&
#129000
1&
#129500
0&
#130000
1&
#130500
0&
#131000
1&
#131500
0&
#132000
b11100 /
1*
1(
1&
1"
#132500
0&
#133000
b11100 .
0(
1&
#133500
0&
#134000
0*
1(
1&
0"
#134500
0&
#135000
0(
1&
#135500
0&
#136000
1&
#136500
0&
#137000
1&
#137500
0&
#138000
1&
#138500
0&
#139000
1&
#139500
0&
#140000
b11101 /
1*
1(
1&
1"
#140500
0&
#141000
b11101 .
0(
1&
#141500
0&
#142000
b11110 /
0*
1(
1&
0"
#142500
0&
#143000
0%
0#
0$
1'
b11110 .
0(
1&
#143500
0&
#144000
0)
1&
b10000010100001101001011 !
#144500
0&
#145000
1&
#145500
0&
#146000
1&
#146500
0&
#147000
1&
#147500
0&
#148000
1*
1(
1&
1"
#148500
0&
#149000
0(
1&
#149500
0&
#150000
b110101 /
0*
1(
1&
0"
#150500
0&
#151000
1%
1#
b1 /
0'
b110101 .
0(
1&
#151500
0&
#152000
1)
b1 .
1&
b1010011010101000100111101010000 !
#152500
0&
#153000
1&
#153500
0&
#154000
0)
0%
0#
1&
#154500
0&
#155000
1&
#155500
0&
#156000
1*
1(
1&
1"
#156500
0&
#157000
0(
1&
#157500
0&
#158000
1)
1,
1%
1#
1&
#158500
0&
#159000
0,
1&
#159500
0&
#160000
1&
b101001101010100010000010101001001010100 !
#160500
0&
#161000
1&
#161500
0&
#162000
b11 /
0)
1+
0%
0#
1&
#162500
0&
#163000
b11 .
0+
1&
#163500
0&
#164000
0*
1(
1&
0"
#164500
0&
#165000
0(
1&
#165500
0&
#166000
1&
b1000001010001000100010001010010010001010101001101010011 !
#166500
0&
#167000
1&
#167500
0&
#168000
1)
1%
1#
1&
#168500
0&
#169000
1&
#169500
0&
#170000
b100 /
1*
1(
1&
1"
#170500
0&
#171000
b100 .
0(
1&
#171500
0&
#172000
0*
1(
1&
0"
#172500
0&
#173000
0(
1&
#173500
0&
#174000
1&
#174500
0&
#175000
1&
#175500
0&
#176000
0)
0%
0#
1&
#176500
0&
#177000
1&
#177500
0&
#178000
b101 /
1*
1(
1&
1"
#178500
0&
#179000
b101 .
0(
1&
#179500
0&
#180000
0*
1(
1&
0"
#180500
0&
#181000
0(
1&
#181500
0&
#182000
1)
1%
1#
1&
#182500
0&
#183000
1&
#183500
0&
#184000
0)
0%
0#
1&
#184500
0&
#185000
1&
#185500
0&
#186000
b110 /
1*
1(
1&
1"
#186500
0&
#187000
b110 .
0(
1&
#187500
0&
#188000
0*
1(
1&
0"
#188500
0&
#189000
0(
1&
#189500
0&
#190000
1)
1%
1#
1&
#190500
0&
#191000
1&
#191500
0&
#192000
0)
0%
0#
1&
#192500
0&
#193000
1&
#193500
0&
#194000
b111 /
1*
1(
1&
1"
#194500
0&
#195000
b111 .
0(
1&
#195500
0&
#196000
0*
1(
1&
0"
#196500
0&
#197000
0(
1&
#197500
0&
#198000
1)
1%
1#
1&
#198500
0&
#199000
1&
#199500
0&
#200000
1&
#200500
0&
#201000
1&
#201500
0&
#202000
b1000 /
1*
1(
1&
1"
#202500
0&
#203000
b1000 .
0(
1&
#203500
0&
#204000
0*
1(
1&
0"
#204500
0&
#205000
0(
1&
#205500
0&
#206000
1&
#206500
0&
#207000
1&
#207500
0&
#208000
0)
0%
0#
1&
#208500
0&
#209000
1&
#209500
0&
#210000
b1001 /
1*
1(
1&
1"
#210500
0&
#211000
b1001 .
0(
1&
#211500
0&
#212000
0*
1(
1&
0"
#212500
0&
#213000
0(
1&
#213500
0&
#214000
1)
1%
1#
1&
#214500
0&
#215000
1&
#215500
0&
#216000
1&
#216500
0&
#217000
1&
#217500
0&
#218000
b1010 /
1*
1(
1&
1"
#218500
0&
#219000
b1010 .
0(
1&
#219500
0&
#220000
0*
1(
1&
0"
#220500
0&
#221000
0(
1&
#221500
0&
#222000
1&
b1010010 !
#222500
0&
#223000
1&
#223500
0&
#224000
1&
#224500
0&
#225000
1&
#225500
0&
#226000
b110010 /
1*
1(
1&
1"
#226500
0&
#227000
b110010 .
0(
1&
#227500
0&
#228000
b1011 /
0*
1(
1&
0"
#228500
0&
#229000
0%
0#
1'
b1011 .
0(
1&
#229500
0&
#230000
0)
1&
b10000010100001101001011 !
#230500
0&
#231000
1&
#231500
0&
#232000
1&
#232500
0&
#233000
1&
#233500
0&
#234000
1*
1(
1&
1"
#234500
0&
#235000
0(
1&
#235500
0&
#236000
b1100 /
0*
1(
1&
0"
#236500
0&
#237000
b1100 .
0(
1&
#237500
0&
#238000
1&
b1000010010110010101010001000101 !
#238500
0&
#239000
1&
#239500
0&
#240000
1&
#240500
0&
#241000
1&
#241500
0&
#242000
1*
1(
1&
1"
#242500
0&
#243000
0(
1&
#243500
0&
#244000
b1101 /
0*
1(
1&
0"
#244500
0&
#245000
b1101 .
0(
1&
#245500
0&
#246000
1&
#246500
0&
#247000
1&
#247500
0&
#248000
1&
#248500
0&
#249000
1&
#249500
0&
#250000
1*
1(
1&
1"
#250500
0&
#251000
0(
1&
#251500
0&
#252000
b1110 /
0*
1(
1&
0"
#252500
0&
#253000
1%
1#
1$
b1110 .
0(
1&
#253500
0&
#254000
1)
1&
#254500
0&
#255000
1&
#255500
0&
#256000
1&
#256500
0&
#257000
1&
#257500
0&
#258000
1*
1(
1&
1"
#258500
0&
#259000
0(
1&
#259500
0&
#260000
b1111 /
0*
1(
1&
0"
#260500
0&
#261000
b1111 .
0(
1&
#261500
0&
#262000
1&
#262500
0&
#263000
1&
#263500
0&
#264000
1&
#264500
0&
#265000
1&
#265500
0&
#266000
1*
1(
1&
1"
#266500
0&
#267000
0(
1&
#267500
0&
#268000
b10000 /
0*
1(
1&
0"
#268500
0&
#269000
0%
0#
0$
b10000 .
0(
1&
#269500
0&
#270000
0)
1&
#270500
0&
#271000
1&
#271500
0&
#272000
1&
#272500
0&
#273000
1&
#273500
0&
#274000
1*
1(
1&
1"
#274500
0&
#275000
0(
1&
#275500
0&
#276000
b10001 /
0*
1(
1&
0"
#276500
0&
#277000
b10001 .
0(
1&
#277500
0&
#278000
1&
#278500
0&
#279000
1&
#279500
0&
#280000
1&
#280500
0&
#281000
1&
#281500
0&
#282000
1*
1(
1&
1"
#282500
0&
#283000
0(
1&
#283500
0&
#284000
b10010 /
0*
1(
1&
0"
#284500
0&
#285000
1%
1#
1$
b10010 .
0(
1&
#285500
0&
#286000
1)
1&
#286500
0&
#287000
1&
#287500
0&
#288000
1&
#288500
0&
#289000
1&
#289500
0&
#290000
1*
1(
1&
1"
#290500
0&
#291000
0(
1&
#291500
0&
#292000
b10011 /
0*
1(
1&
0"
#292500
0&
#293000
b10011 .
0(
1&
#293500
0&
#294000
1&
#294500
0&
#295000
1&
#295500
0&
#296000
1&
#296500
0&
#297000
1&
#297500
0&
#298000
1*
1(
1&
1"
#298500
0&
#299000
0(
1&
#299500
0&
#300000
b110101 /
0*
1(
1&
0"
#300500
0&
#301000
b1 /
0'
b110101 .
0(
1&
#301500
0&
#302000
b1 .
1&
b10000010100001101001011 !
#302500
0&
#303000
1&
#303500
0&
#304000
0)
0%
0#
1&
#304500
0&
#305000
1&
#305500
0&
#306000
1*
1(
1&
1"
#306500
0&
#307000
0(
1&
#307500
0&
#308000
0*
1(
1&
0"
#308500
0&
#309000
0(
1&
#309500
0&
#310000
1)
1%
1#
1&
b1010011010101000100111101010000 !
#310500
0&
#311000
1&
#311500
0&
#312000
0)
0%
0#
1&
#312500
0&
#313000
1&
#313500
0&
#314000
1*
1(
1&
1"
#314500
0&
#315000
0(
1&
#315500
0&
#316000
1)
1,
1%
1#
1&
#316500
0&
#317000
0,
1&
#317500
0&
#318000
1&
b0 !
