assignments/05C-home-intruding-step-2/trace.vcd
$date
	Fri Jan 10 08:54:20 2025
$end
$version
	Icarus Verilog
$end
$timescale
	1ps
$end
$scope module bench $end
$scope module UUT $end
$var wire 1 ! clk $end
$var wire 2 " command [1:0] $end
$var wire 1 # digit_entered $end
$var wire 1 $ enable $end
$var wire 1 % reset $end
$var wire 1 & en_digit_2 $end
$var wire 1 ' en_digit_1 $end
$var wire 4 ( digit_2 [3:0] $end
$var wire 4 ) digit_1 [3:0] $end
$var wire 4 * digit_0 [3:0] $end
$var wire 1 + active_digit_overflow $end
$var wire 1 , active_digit_is_3 $end
$var wire 1 - active_digit_is_2 $end
$var wire 4 . active_digit [3:0] $end
$var reg 4 / digit [3:0] $end
$scope module counter_0 $end
$var wire 1 ! clk $end
$var wire 1 % reset $end
$var wire 1 0 rollover $end
$var wire 1 & enable $end
$var wire 1 1 count_finish $end
$var reg 4 2 count [3:0] $end
$upscope $end
$scope module counter_1 $end
$var wire 1 ! clk $end
$var wire 1 % reset $end
$var wire 1 & rollover $end
$var wire 1 ' enable $end
$var wire 1 3 count_finish $end
$var reg 4 4 count [3:0] $end
$upscope $end
$scope module counter_2 $end
$var wire 1 ! clk $end
$var wire 1 + enable $end
$var wire 1 % reset $end
$var wire 1 ' rollover $end
$var wire 1 5 count_finish $end
$var reg 4 6 count [3:0] $end
$upscope $end
$scope module counter_active $end
$var wire 1 ! clk $end
$var wire 1 7 enable $end
$var wire 1 8 reset $end
$var wire 1 9 rollover $end
$var wire 1 : count_finish $end
$var reg 4 ; count [3:0] $end
$upscope $end
$upscope $end
$upscope $end
$scope module bench $end
$scope module REF $end
$var wire 1 ! clk $end
$var wire 2 < command [1:0] $end
$var wire 1 = digit_entered $end
$var wire 1 $ enable $end
$var wire 1 % reset $end
$var wire 1 > en_digit_2 $end
$var wire 1 ? en_digit_1 $end
$var wire 4 @ digit_2 [3:0] $end
$var wire 4 A digit_1 [3:0] $end
$var wire 4 B digit_0 [3:0] $end
$var wire 1 C active_digit_overflow $end
$var wire 1 D active_digit_is_3 $end
$var wire 1 E active_digit_is_2 $end
$var wire 4 F active_digit [3:0] $end
$var reg 4 G digit [3:0] $end
$upscope $end
$upscope $end
$scope module bench $end
$scope module TARGET $end
$var wire 1 ! clk $end
$var wire 2 H command [1:0] $end
$var wire 1 # digit_enterd $end
$var wire 1 % reset $end
$var wire 4 I state_target [3:0] $end
$var wire 1 J trigger $end
$var wire 4 K digit [3:0] $end
$var parameter 32 L ALARM $end
$var parameter 32 M ARM0 $end
$var parameter 32 N ARM1 $end
$var parameter 32 O ARM1B $end
$var parameter 32 P ARM2 $end
$var parameter 32 Q ARM2B $end
$var parameter 32 R ARMED $end
$var parameter 32 S COM_ARM $end
$var parameter 32 T COM_DIS $end
$var parameter 32 U COM_NONE $end
$var parameter 32 V DISARM0 $end
$var parameter 32 W DISARM1 $end
$var parameter 32 X DISARM1B $end
$var parameter 32 Y DISARM2 $end
$var parameter 32 Z DISARM2B $end
$var parameter 32 [ DISARMED $end
$var parameter 32 \ D_0 $end
$var parameter 32 ] D_1 $end
$var parameter 32 ^ D_2 $end
$var parameter 32 _ _MAX_STATE $end
$var parameter 32 ` _MIN_STATE $end
$var reg 1 a alarm $end
$var reg 1 b armed $end
$var reg 4 c state [3:0] $end
$var reg 4 d state_next [3:0] $end
$upscope $end
$upscope $end
$enddefinitions $end
$comment Show the parameter values. $end
$dumpall
b0 `
b1100 _
b11 ^
b101 ]
b0 \
b0 [
b1100 Z
b111 Y
b1011 X
b110 W
b101 V
b0 U
b10 T
b1 S
b100 R
b1010 Q
b11 P
b1001 O
b10 N
b1 M
b1000 L
$end
#0
$dumpvars
b101 d
b100 c
1b
xa
b0 K
zJ
b100 I
b10 H
b0 G
b0 F
0E
0D
0C
b0 B
b0 A
b0 @
0?
0>
1=
b10 <
b0 ;
0:
09
18
17
b0 6
05
b0 4
03
b0 2
01
00
b0 /
b0 .
0-
0,
0+
b0 *
b0 )
b0 (
0'
0&
1%
1$
1#
b10 "
1!
$end
#500
0!
#1000
b110 d
b101 I
b101 c
b1 .
b1 ;
b1 F
08
1!
0%
#1500
0!
#2000
1E
1-
b1100 d
b10 F
b10 .
b10 ;
b110 I
b110 c
1!
#2500
0!
#3000
18
b100 d
1+
1,
0-
1C
1D
0E
b1100 I
b1100 c
b11 .
b11 ;
b11 F
1!
#3500
0!
#4000
08
0C
0D
0+
0,
b101 d
b1 @
b0 F
b1 (
b1 6
b0 .
b0 ;
b100 I
b100 c
1!
#4500
0!
#5000
b110 d
b101 I
b101 c
b1 .
b1 ;
b1 F
1!
#5500
0!
#6000
1E
1-
b1100 d
b10 F
b10 .
b10 ;
b110 I
b110 c
1!
#6500
0!
#7000
18
b1 /
b1 K
b1 G
b100 d
1+
1,
0-
1C
1D
0E
b1100 I
b1100 c
b11 .
b11 ;
b11 F
1!
#7500
0!
#8000
08
b0 G
0C
0D
b0 /
b0 K
0+
0,
b101 d
b10 @
b0 F
b10 (
b10 6
b0 .
b0 ;
b100 I
b100 c
1!
#8500
0!
#9000
b110 d
b101 I
b101 c
b1 .
b1 ;
b1 F
1!
#9500
0!
#10000
1E
1-
b1100 d
b10 F
b10 .
b10 ;
b110 I
b110 c
1!
#10500
0!
#11000
18
b10 /
b10 K
b10 G
b100 d
1+
1,
0-
1C
1D
0E
b1100 I
b1100 c
b11 .
b11 ;
b11 F
1!
#11500
0!
#12000
08
b0 G
0C
0D
b0 /
b0 K
0+
0,
b101 d
b11 @
b0 F
b11 (
b11 6
b0 .
b0 ;
b100 I
b100 c
1!
#12500
0!
#13000
b110 d
b101 I
b101 c
b1 .
b1 ;
b1 F
1!
#13500
0!
#14000
1E
1-
b1100 d
b10 F
b10 .
b10 ;
b110 I
b110 c
1!
#14500
0!
#15000
18
b11 /
b11 K
b11 G
b100 d
1+
1,
0-
1C
1D
0E
b1100 I
b1100 c
b11 .
b11 ;
b11 F
1!
#15500
0!
#16000
08
b0 G
0C
0D
b0 /
b0 K
0+
0,
b101 d
b100 @
b0 F
b100 (
b100 6
b0 .
b0 ;
b100 I
b100 c
1!
#16500
0!
#17000
b110 d
b101 I
b101 c
b1 .
b1 ;
b1 F
1!
#17500
0!
#18000
1E
1-
b1100 d
b10 F
b10 .
b10 ;
b110 I
b110 c
1!
#18500
0!
#19000
18
b100 /
b100 K
b100 G
b100 d
1+
1,
0-
1C
1D
0E
b1100 I
b1100 c
b11 .
b11 ;
b11 F
1!
#19500
0!
#20000
08
b0 G
0C
0D
b0 /
b0 K
0+
0,
b101 d
b101 @
b0 F
b101 (
b101 6
b0 .
b0 ;
b100 I
b100 c
1!
#20500
0!
#21000
b110 d
b101 I
b101 c
b1 .
b1 ;
b1 F
1!
#21500
0!
#22000
1E
1-
b1100 d
b10 F
b10 .
b10 ;
b110 I
b110 c
1!
#22500
0!
#23000
18
b101 /
b101 K
b101 G
b100 d
1+
1,
0-
1C
1D
0E
b1100 I
b1100 c
b11 .
b11 ;
b11 F
1!
#23500
0!
#24000
08
b0 G
0C
0D
b0 /
b0 K
0+
0,
b101 d
b110 @
b0 F
b110 (
b110 6
b0 .
b0 ;
b100 I
b100 c
1!
#24500
0!
#25000
b110 d
b101 I
b101 c
b1 .
b1 ;
b1 F
1!
#25500
0!
#26000
1E
1-
b1100 d
b10 F
b10 .
b10 ;
b110 I
b110 c
1!
#26500
0!
#27000
18
b110 /
b110 K
b110 G
b100 d
1+
1,
0-
1C
1D
0E
b1100 I
b1100 c
b11 .
b11 ;
b11 F
1!
#27500
0!
#28000
08
b0 G
0C
0D
b0 /
b0 K
0+
0,
b101 d
b111 @
b0 F
b111 (
b111 6
b0 .
b0 ;
b100 I
b100 c
1!
#28500
0!
#29000
b110 d
b101 I
b101 c
b1 .
b1 ;
b1 F
1!
#29500
0!
#30000
1E
1-
b1100 d
b10 F
b10 .
b10 ;
b110 I
b110 c
1!
#30500
0!
#31000
18
b111 /
b111 K
b111 G
b100 d
1+
1,
0-
1C
1D
0E
b1100 I
b1100 c
b11 .
b11 ;
b11 F
1!
#31500
0!
#32000
08
b0 G
0C
0D
b0 /
b0 K
0+
0,
b101 d
b1000 @
b0 F
b1000 (
b1000 6
b0 .
b0 ;
b100 I
b100 c
1!
#32500
0!
#33000
b110 d
b101 I
b101 c
b1 .
b1 ;
b1 F
1!
#33500
0!
#34000
1E
1-
b1100 d
b10 F
b10 .
b10 ;
b110 I
b110 c
1!
#34500
0!
#35000
18
b1000 /
b1000 K
b1000 G
b100 d
1+
1,
0-
1C
1D
0E
b1100 I
b1100 c
b11 .
b11 ;
b11 F
1!
#35500
0!
#36000
08
b0 G
0C
0D
15
b0 /
b0 K
0+
0,
b101 d
b1001 @
b0 F
b1001 (
b1001 6
b0 .
b0 ;
b100 I
b100 c
1!
#36500
0!
#37000
b110 d
b101 I
b101 c
b1 .
b1 ;
b1 F
1!
#37500
0!
#38000
1E
1-
b1100 d
b10 F
b10 .
b10 ;
b110 I
b110 c
1!
#38500
0!
#39000
1'
18
b1001 /
b1001 K
1?
b1001 G
b100 d
1+
1,
0-
1C
1D
0E
b1100 I
b1100 c
b11 .
b11 ;
b11 F
1!
#39500
0!
#40000
0?
0'
08
b0 G
0C
0D
05
b0 /
b0 K
0+
0,
b101 d
b0 @
b1 A
b0 F
b0 (
b0 6
b1 )
b1 4
b0 .
b0 ;
b100 I
b100 c
1!
#40500
0!
#41000
b110 d
b101 I
b101 c
b1 .
b1 ;
b1 F
1!
#41500
0!
#42000
b1 G
b1 /
b1 K
1E
1-
b1100 d
b10 F
b10 .
b10 ;
b110 I
b110 c
1!
#42500
0!
#43000
18
b0 /
b0 K
b0 G
b100 d
1+
1,
0-
1C
1D
0E
b1100 I
b1100 c
b11 .
b11 ;
b11 F
1!
#43500
0!
#44000
08
0C
0D
0+
0,
b101 d
b1 @
b0 F
b1 (
b1 6
b0 .
b0 ;
b100 I
b100 c
1!
#44500
0!
#45000
b110 d
b101 I
b101 c
b1 .
b1 ;
b1 F
1!
#45500
0!
#46000
b1 G
b1 /
b1 K
1E
1-
b1100 d
b10 F
b10 .
b10 ;
b110 I
b110 c
1!
#46500
0!
#47000
18
b1 /
b1 K
b1 G
b100 d
1+
1,
0-
1C
1D
0E
b1100 I
b1100 c
b11 .
b11 ;
b11 F
1!
#47500
0!
#48000
08
b0 G
0C
0D
b0 /
b0 K
0+
0,
b101 d
b10 @
b0 F
b10 (
b10 6
b0 .
b0 ;
b100 I
b100 c
1!
#48500
0!
#49000
b110 d
b101 I
b101 c
b1 .
b1 ;
b1 F
1!
#49500
0!
#50000
b1 G
b1 /
b1 K
1E
1-
b1100 d
b10 F
b10 .
b10 ;
b110 I
b110 c
1!
#50500
0!
#51000
18
b10 /
b10 K
b10 G
b100 d
1+
1,
0-
1C
1D
0E
b1100 I
b1100 c
b11 .
b11 ;
b11 F
1!
#51500
0!
#52000
08
b0 G
0C
0D
b0 /
b0 K
0+
0,
b101 d
b11 @
b0 F
b11 (
b11 6
b0 .
b0 ;
b100 I
b100 c
1!
#52500
0!
#53000
b110 d
b101 I
b101 c
b1 .
b1 ;
b1 F
1!
#53500
0!
#54000
b1 G
b1 /
b1 K
1E
1-
b1100 d
b10 F
b10 .
b10 ;
b110 I
b110 c
1!
#54500
0!
#55000
18
b11 /
b11 K
b11 G
b100 d
1+
1,
0-
1C
1D
0E
b1100 I
b1100 c
b11 .
b11 ;
b11 F
1!
#55500
0!
#56000
08
b0 G
0C
0D
b0 /
b0 K
0+
0,
b101 d
b100 @
b0 F
b100 (
b100 6
b0 .
b0 ;
b100 I
b100 c
1!
#56500
0!
#57000
b110 d
b101 I
b101 c
b1 .
b1 ;
b1 F
1!
#57500
0!
#58000
b1 G
b1 /
b1 K
1E
1-
b1100 d
b10 F
b10 .
b10 ;
b110 I
b110 c
1!
#58500
0!
#59000
18
b100 /
b100 K
b100 G
b100 d
1+
1,
0-
1C
1D
0E
b1100 I
b1100 c
b11 .
b11 ;
b11 F
1!
#59500
0!
#60000
08
b0 G
0C
0D
b0 /
b0 K
0+
0,
b101 d
b101 @
b0 F
b101 (
b101 6
b0 .
b0 ;
b100 I
b100 c
1!
#60500
0!
#61000
b110 d
b101 I
b101 c
b1 .
b1 ;
b1 F
1!
#61500
0!
#62000
b1 G
b1 /
b1 K
1E
1-
b1100 d
b10 F
b10 .
b10 ;
b110 I
b110 c
1!
#62500
0!
#63000
18
b101 /
b101 K
b101 G
b100 d
1+
1,
0-
1C
1D
0E
b1100 I
b1100 c
b11 .
b11 ;
b11 F
1!
#63500
0!
#64000
08
b0 G
0C
0D
b0 /
b0 K
0+
0,
b101 d
b110 @
b0 F
b110 (
b110 6
b0 .
b0 ;
b100 I
b100 c
1!
#64500
0!
#65000
b110 d
b101 I
b101 c
b1 .
b1 ;
b1 F
1!
#65500
0!
#66000
b1 G
b1 /
b1 K
1E
1-
b1100 d
b10 F
b10 .
b10 ;
b110 I
b110 c
1!
#66500
0!
#67000
18
b110 /
b110 K
b110 G
b100 d
1+
1,
0-
1C
1D
0E
b1100 I
b1100 c
b11 .
b11 ;
b11 F
1!
#67500
0!
#68000
08
b0 G
0C
0D
b0 /
b0 K
0+
0,
b101 d
b111 @
b0 F
b111 (
b111 6
b0 .
b0 ;
b100 I
b100 c
1!
#68500
0!
#69000
b110 d
b101 I
b101 c
b1 .
b1 ;
b1 F
1!
#69500
0!
#70000
b1 G
b1 /
b1 K
1E
1-
b1100 d
b10 F
b10 .
b10 ;
b110 I
b110 c
1!
#70500
0!
#71000
18
b111 /
b111 K
b111 G
b100 d
1+
1,
0-
1C
1D
0E
b1100 I
b1100 c
b11 .
b11 ;
b11 F
1!
#71500
0!
#72000
08
b0 G
0C
0D
b0 /
b0 K
0+
0,
b101 d
b1000 @
b0 F
b1000 (
b1000 6
b0 .
b0 ;
b100 I
b100 c
1!
#72500
0!
#73000
b110 d
b101 I
b101 c
b1 .
b1 ;
b1 F
1!
#73500
0!
#74000
b1 G
b1 /
b1 K
1E
1-
b1100 d
b10 F
b10 .
b10 ;
b110 I
b110 c
1!
#74500
0!
#75000
18
b1000 /
b1000 K
b1000 G
b100 d
1+
1,
0-
1C
1D
0E
b1100 I
b1100 c
b11 .
b11 ;
b11 F
1!
#75500
0!
#76000
08
b0 G
0C
0D
15
b0 /
b0 K
0+
0,
b101 d
b1001 @
b0 F
b1001 (
b1001 6
b0 .
b0 ;
b100 I
b100 c
1!
#76500
0!
#77000
b110 d
b101 I
b101 c
b1 .
b1 ;
b1 F
1!
#77500
0!
#78000
b1 G
b1 /
b1 K
1E
1-
b1100 d
b10 F
b10 .
b10 ;
b110 I
b110 c
1!
#78500
0!
#79000
1'
18
b1001 /
b1001 K
1?
b1001 G
b100 d
1+
1,
0-
1C
1D
0E
b1100 I
b1100 c
b11 .
b11 ;
b11 F
1!
#79500
0!
#80000
0?
0'
08
b0 G
0C
0D
05
b0 /
b0 K
0+
0,
b101 d
b0 @
b10 A
b0 F
b0 (
b0 6
b10 )
b10 4
b0 .
b0 ;
b100 I
b100 c
1!
#80500
0!
#81000
b110 d
b101 I
b101 c
b1 .
b1 ;
b1 F
1!
#81500
0!
#82000
b10 G
b10 /
b10 K
1E
1-
b1100 d
b10 F
b10 .
b10 ;
b110 I
b110 c
1!
#82500
0!
#83000
18
b0 /
b0 K
b0 G
b100 d
1+
1,
0-
1C
1D
0E
b1100 I
b1100 c
b11 .
b11 ;
b11 F
1!
#83500
0!
#84000
08
0C
0D
0+
0,
b101 d
b1 @
b0 F
b1 (
b1 6
b0 .
b0 ;
b100 I
b100 c
1!
#84500
0!
#85000
b110 d
b101 I
b101 c
b1 .
b1 ;
b1 F
1!
#85500
0!
#86000
b10 G
b10 /
b10 K
1E
1-
b1100 d
b10 F
b10 .
b10 ;
b110 I
b110 c
1!
#86500
0!
#87000
18
b1 /
b1 K
b1 G
b100 d
1+
1,
0-
1C
1D
0E
b1100 I
b1100 c
b11 .
b11 ;
b11 F
1!
#87500
0!
#88000
08
b0 G
0C
0D
b0 /
b0 K
0+
0,
b101 d
b10 @
b0 F
b10 (
b10 6
b0 .
b0 ;
b100 I
b100 c
1!
#88500
0!
#89000
b110 d
b101 I
b101 c
b1 .
b1 ;
b1 F
1!
#89500
0!
#90000
b10 G
b10 /
b10 K
1E
1-
b1100 d
b10 F
b10 .
b10 ;
b110 I
b110 c
1!
#90500
0!
#91000
18
b10 /
b10 K
b10 G
b100 d
1+
1,
0-
1C
1D
0E
b1100 I
b1100 c
b11 .
b11 ;
b11 F
1!
#91500
0!
#92000
08
b0 G
0C
0D
b0 /
b0 K
0+
0,
b101 d
b11 @
b0 F
b11 (
b11 6
b0 .
b0 ;
b100 I
b100 c
1!
#92500
0!
#93000
b110 d
b101 I
b101 c
b1 .
b1 ;
b1 F
1!
#93500
0!
#94000
b10 G
b10 /
b10 K
1E
1-
b1100 d
b10 F
b10 .
b10 ;
b110 I
b110 c
1!
#94500
0!
#95000
18
b11 /
b11 K
b11 G
b100 d
1+
1,
0-
1C
1D
0E
b1100 I
b1100 c
b11 .
b11 ;
b11 F
1!
#95500
0!
#96000
08
b0 G
0C
0D
b0 /
b0 K
0+
0,
b101 d
b100 @
b0 F
b100 (
b100 6
b0 .
b0 ;
b100 I
b100 c
1!
#96500
0!
#97000
b110 d
b101 I
b101 c
b1 .
b1 ;
b1 F
1!
#97500
0!
#98000
b10 G
b10 /
b10 K
1E
1-
b1100 d
b10 F
b10 .
b10 ;
b110 I
b110 c
1!
#98500
0!
#99000
18
b100 /
b100 K
b100 G
b100 d
1+
1,
0-
1C
1D
0E
b1100 I
b1100 c
b11 .
b11 ;
b11 F
1!
#99500
0!
#100000
08
b0 G
0C
0D
b0 /
b0 K
0+
0,
b101 d
b101 @
b0 F
b101 (
b101 6
b0 .
b0 ;
b100 I
b100 c
1!
#100500
0!
#101000
b110 d
b101 I
b101 c
b1 .
b1 ;
b1 F
1!
#101500
0!
#102000
b10 G
b10 /
b10 K
1E
1-
b1100 d
b10 F
b10 .
b10 ;
b110 I
b110 c
1!
#102500
0!
#103000
18
b101 /
b101 K
b101 G
b100 d
1+
1,
0-
1C
1D
0E
b1100 I
b1100 c
b11 .
b11 ;
b11 F
1!
#103500
0!
#104000
08
b0 G
0C
0D
b0 /
b0 K
0+
0,
b101 d
b110 @
b0 F
b110 (
b110 6
b0 .
b0 ;
b100 I
b100 c
1!
#104500
0!
#105000
b110 d
b101 I
b101 c
b1 .
b1 ;
b1 F
1!
#105500
0!
#106000
b10 G
b10 /
b10 K
1E
1-
b1100 d
b10 F
b10 .
b10 ;
b110 I
b110 c
1!
#106500
0!
#107000
18
b110 /
b110 K
b110 G
b100 d
1+
1,
0-
1C
1D
0E
b1100 I
b1100 c
b11 .
b11 ;
b11 F
1!
#107500
0!
#108000
08
b0 G
0C
0D
b0 /
b0 K
0+
0,
b101 d
b111 @
b0 F
b111 (
b111 6
b0 .
b0 ;
b100 I
b100 c
1!
#108500
0!
#109000
b110 d
b101 I
b101 c
b1 .
b1 ;
b1 F
1!
#109500
0!
#110000
b10 G
b10 /
b10 K
1E
1-
b1100 d
b10 F
b10 .
b10 ;
b110 I
b110 c
1!
#110500
0!
#111000
18
b111 /
b111 K
b111 G
b100 d
1+
1,
0-
1C
1D
0E
b1100 I
b1100 c
b11 .
b11 ;
b11 F
1!
#111500
0!
#112000
08
b0 G
0C
0D
b0 /
b0 K
0+
0,
b101 d
b1000 @
b0 F
b1000 (
b1000 6
b0 .
b0 ;
b100 I
b100 c
1!
#112500
0!
#113000
b110 d
b101 I
b101 c
b1 .
b1 ;
b1 F
1!
#113500
0!
#114000
b10 G
b10 /
b10 K
1E
1-
b1100 d
b10 F
b10 .
b10 ;
b110 I
b110 c
1!
#114500
0!
#115000
18
b1000 /
b1000 K
b1000 G
b100 d
1+
1,
0-
1C
1D
0E
b1100 I
b1100 c
b11 .
b11 ;
b11 F
1!
#115500
0!
#116000
08
b0 G
0C
0D
15
b0 /
b0 K
0+
0,
b101 d
b1001 @
b0 F
b1001 (
b1001 6
b0 .
b0 ;
b100 I
b100 c
1!
#116500
0!
#117000
b110 d
b101 I
b101 c
b1 .
b1 ;
b1 F
1!
#117500
0!
#118000
b10 G
b10 /
b10 K
1E
1-
b1100 d
b10 F
b10 .
b10 ;
b110 I
b110 c
1!
#118500
0!
#119000
1'
18
b1001 /
b1001 K
1?
b1001 G
b100 d
1+
1,
0-
1C
1D
0E
b1100 I
b1100 c
b11 .
b11 ;
b11 F
1!
#119500
0!
#120000
0?
0'
08
b0 G
0C
0D
05
b0 /
b0 K
0+
0,
b101 d
b0 @
b11 A
b0 F
b0 (
b0 6
b11 )
b11 4
b0 .
b0 ;
b100 I
b100 c
1!
#120500
0!
#121000
b110 d
b101 I
b101 c
b1 .
b1 ;
b1 F
1!
#121500
0!
#122000
b11 G
b11 /
b11 K
1E
1-
b1100 d
b10 F
b10 .
b10 ;
b110 I
b110 c
1!
#122500
0!
#123000
18
b0 /
b0 K
b0 G
b100 d
1+
1,
0-
1C
1D
0E
b1100 I
b1100 c
b11 .
b11 ;
b11 F
1!
#123500
0!
#124000
08
0C
0D
0+
0,
b101 d
b1 @
b0 F
b1 (
b1 6
b0 .
b0 ;
b100 I
b100 c
1!
#124500
0!
#125000
b110 d
b101 I
b101 c
b1 .
b1 ;
b1 F
1!
#125500
0!
#126000
b11 G
b11 /
b11 K
1E
1-
b1100 d
b10 F
b10 .
b10 ;
b110 I
b110 c
1!
#126500
0!
#127000
18
b1 /
b1 K
b1 G
b100 d
1+
1,
0-
1C
1D
0E
b1100 I
b1100 c
b11 .
b11 ;
b11 F
1!
#127500
0!
#128000
08
b0 G
0C
0D
b0 /
b0 K
0+
0,
b101 d
b10 @
b0 F
b10 (
b10 6
b0 .
b0 ;
b100 I
b100 c
1!
#128500
0!
#129000
b110 d
b101 I
b101 c
b1 .
b1 ;
b1 F
1!
#129500
0!
#130000
b11 G
b11 /
b11 K
1E
1-
b1100 d
b10 F
b10 .
b10 ;
b110 I
b110 c
1!
#130500
0!
#131000
18
b10 /
b10 K
b10 G
b100 d
1+
1,
0-
1C
1D
0E
b1100 I
b1100 c
b11 .
b11 ;
b11 F
1!
#131500
0!
#132000
08
b0 G
0C
0D
b0 /
b0 K
0+
0,
b101 d
b11 @
b0 F
b11 (
b11 6
b0 .
b0 ;
b100 I
b100 c
1!
#132500
0!
#133000
b110 d
b101 I
b101 c
b1 .
b1 ;
b1 F
1!
#133500
0!
#134000
b11 G
b11 /
b11 K
1E
1-
b1100 d
b10 F
b10 .
b10 ;
b110 I
b110 c
1!
#134500
0!
#135000
18
b11 /
b11 K
b11 G
b100 d
1+
1,
0-
1C
1D
0E
b1100 I
b1100 c
b11 .
b11 ;
b11 F
1!
#135500
0!
#136000
08
b0 G
0C
0D
b0 /
b0 K
0+
0,
b101 d
b100 @
b0 F
b100 (
b100 6
b0 .
b0 ;
b100 I
b100 c
1!
#136500
0!
#137000
b110 d
b101 I
b101 c
b1 .
b1 ;
b1 F
1!
#137500
0!
#138000
b11 G
b11 /
b11 K
1E
1-
b1100 d
b10 F
b10 .
b10 ;
b110 I
b110 c
1!
#138500
0!
#139000
18
b100 /
b100 K
b100 G
b100 d
1+
1,
0-
1C
1D
0E
b1100 I
b1100 c
b11 .
b11 ;
b11 F
1!
#139500
0!
#140000
08
b0 G
0C
0D
b0 /
b0 K
0+
0,
b101 d
b101 @
b0 F
b101 (
b101 6
b0 .
b0 ;
b100 I
b100 c
1!
#140500
0!
#141000
b110 d
b101 I
b101 c
b1 .
b1 ;
b1 F
1!
#141500
0!
#142000
b11 G
b11 /
b11 K
1E
1-
b1100 d
b10 F
b10 .
b10 ;
b110 I
b110 c
1!
#142500
0!
#143000
18
b101 /
b101 K
b101 G
b100 d
1+
1,
0-
1C
1D
0E
b1100 I
b1100 c
b11 .
b11 ;
b11 F
1!
#143500
0!
#144000
08
b0 G
0C
0D
b0 /
b0 K
0+
0,
b101 d
b110 @
b0 F
b110 (
b110 6
b0 .
b0 ;
b100 I
b100 c
1!
#144500
0!
#145000
b110 d
b101 I
b101 c
b1 .
b1 ;
b1 F
1!
#145500
0!
#146000
b11 G
b11 /
b11 K
1E
1-
b1100 d
b10 F
b10 .
b10 ;
b110 I
b110 c
1!
#146500
0!
#147000
18
b110 /
b110 K
b110 G
b100 d
1+
1,
0-
1C
1D
0E
b1100 I
b1100 c
b11 .
b11 ;
b11 F
1!
#147500
0!
#148000
08
b0 G
0C
0D
b0 /
b0 K
0+
0,
b101 d
b111 @
b0 F
b111 (
b111 6
b0 .
b0 ;
b100 I
b100 c
1!
#148500
0!
#149000
b110 d
b101 I
b101 c
b1 .
b1 ;
b1 F
1!
#149500
0!
#150000
b11 G
b11 /
b11 K
1E
1-
b1100 d
b10 F
b10 .
b10 ;
b110 I
b110 c
1!
#150500
0!
#151000
18
b111 /
b111 K
b111 G
b100 d
1+
1,
0-
1C
1D
0E
b1100 I
b1100 c
b11 .
b11 ;
b11 F
1!
#151500
0!
#152000
08
b0 G
0C
0D
b0 /
b0 K
0+
0,
b101 d
b1000 @
b0 F
b1000 (
b1000 6
b0 .
b0 ;
b100 I
b100 c
1!
#152500
0!
#153000
b110 d
b101 I
b101 c
b1 .
b1 ;
b1 F
1!
#153500
0!
#154000
b11 G
b11 /
b11 K
1E
1-
b1100 d
b10 F
b10 .
b10 ;
b110 I
b110 c
1!
#154500
0!
#155000
18
b1000 /
b1000 K
b1000 G
b100 d
1+
1,
0-
1C
1D
0E
b1100 I
b1100 c
b11 .
b11 ;
b11 F
1!
#155500
0!
#156000
08
b0 G
0C
0D
15
b0 /
b0 K
0+
0,
b101 d
b1001 @
b0 F
b1001 (
b1001 6
b0 .
b0 ;
b100 I
b100 c
1!
#156500
0!
#157000
b110 d
b101 I
b101 c
b1 .
b1 ;
b1 F
1!
#157500
0!
#158000
b11 G
b11 /
b11 K
1E
1-
b1100 d
b10 F
b10 .
b10 ;
b110 I
b110 c
1!
#158500
0!
#159000
1'
18
b1001 /
b1001 K
1?
b1001 G
b100 d
1+
1,
0-
1C
1D
0E
b1100 I
b1100 c
b11 .
b11 ;
b11 F
1!
#159500
0!
#160000
0?
0'
08
b0 G
0C
0D
05
b0 /
b0 K
0+
0,
b101 d
b0 @
b100 A
b0 F
b0 (
b0 6
b100 )
b100 4
b0 .
b0 ;
b100 I
b100 c
1!
#160500
0!
#161000
b110 d
b101 I
b101 c
b1 .
b1 ;
b1 F
1!
#161500
0!
#162000
b100 G
b100 /
b100 K
1E
1-
b1100 d
b10 F
b10 .
b10 ;
b110 I
b110 c
1!
#162500
0!
#163000
18
b0 /
b0 K
b0 G
b100 d
1+
1,
0-
1C
1D
0E
b1100 I
b1100 c
b11 .
b11 ;
b11 F
1!
#163500
0!
#164000
08
0C
0D
0+
0,
b101 d
b1 @
b0 F
b1 (
b1 6
b0 .
b0 ;
b100 I
b100 c
1!
#164500
0!
#165000
b110 d
b101 I
b101 c
b1 .
b1 ;
b1 F
1!
#165500
0!
#166000
b100 G
b100 /
b100 K
1E
1-
b1100 d
b10 F
b10 .
b10 ;
b110 I
b110 c
1!
#166500
0!
#167000
18
b1 /
b1 K
b1 G
b100 d
1+
1,
0-
1C
1D
0E
b1100 I
b1100 c
b11 .
b11 ;
b11 F
1!
#167500
0!
#168000
08
b0 G
0C
0D
b0 /
b0 K
0+
0,
b101 d
b10 @
b0 F
b10 (
b10 6
b0 .
b0 ;
b100 I
b100 c
1!
#168500
0!
#169000
b110 d
b101 I
b101 c
b1 .
b1 ;
b1 F
1!
#169500
0!
#170000
b100 G
b100 /
b100 K
1E
1-
b1100 d
b10 F
b10 .
b10 ;
b110 I
b110 c
1!
#170500
0!
#171000
18
b10 /
b10 K
b10 G
b100 d
1+
1,
0-
1C
1D
0E
b1100 I
b1100 c
b11 .
b11 ;
b11 F
1!
#171500
0!
#172000
08
b0 G
0C
0D
b0 /
b0 K
0+
0,
b101 d
b11 @
b0 F
b11 (
b11 6
b0 .
b0 ;
b100 I
b100 c
1!
#172500
0!
#173000
b110 d
b101 I
b101 c
b1 .
b1 ;
b1 F
1!
#173500
0!
#174000
b100 G
b100 /
b100 K
1E
1-
b1100 d
b10 F
b10 .
b10 ;
b110 I
b110 c
1!
#174500
0!
#175000
18
b11 /
b11 K
b11 G
b100 d
1+
1,
0-
1C
1D
0E
b1100 I
b1100 c
b11 .
b11 ;
b11 F
1!
#175500
0!
#176000
08
b0 G
0C
0D
b0 /
b0 K
0+
0,
b101 d
b100 @
b0 F
b100 (
b100 6
b0 .
b0 ;
b100 I
b100 c
1!
#176500
0!
#177000
b110 d
b101 I
b101 c
b1 .
b1 ;
b1 F
1!
#177500
0!
#178000
b100 G
b100 /
b100 K
1E
1-
b1100 d
b10 F
b10 .
b10 ;
b110 I
b110 c
1!
#178500
0!
#179000
18
b100 /
b100 K
b100 G
b100 d
1+
1,
0-
1C
1D
0E
b1100 I
b1100 c
b11 .
b11 ;
b11 F
1!
#179500
0!
#180000
08
b0 G
0C
0D
b0 /
b0 K
0+
0,
b101 d
b101 @
b0 F
b101 (
b101 6
b0 .
b0 ;
b100 I
b100 c
1!
#180500
0!
#181000
b110 d
b101 I
b101 c
b1 .
b1 ;
b1 F
1!
#181500
0!
#182000
b100 G
b100 /
b100 K
1E
1-
b1100 d
b10 F
b10 .
b10 ;
b110 I
b110 c
1!
#182500
0!
#183000
18
b101 /
b101 K
b101 G
b100 d
1+
1,
0-
1C
1D
0E
b1100 I
b1100 c
b11 .
b11 ;
b11 F
1!
#183500
0!
#184000
08
b0 G
0C
0D
b0 /
b0 K
0+
0,
b101 d
b110 @
b0 F
b110 (
b110 6
b0 .
b0 ;
b100 I
b100 c
1!
